<svg width="18" height="18" viewBox="0 0 18 18" fill="none" xmlns="http://www.w3.org/2000/svg">
<path fill-rule="evenodd" clip-rule="evenodd" d="M13.1887 0.363769C14.1968 0.569218 15.1298 1.04553 15.8874 1.74149C16.645 2.43745 17.1987 3.32675 17.4888 4.31377C17.7575 5.21877 17.7975 6.17627 17.605 7.10127C17.3268 8.36857 16.6265 9.50388 15.619 10.3214C14.6114 11.1389 13.3562 11.5901 12.0587 11.6013C11.5112 11.6013 10.9663 11.5225 10.4425 11.3638L9.4425 12.5363L8.96875 12.755H7.75V14.63L7.125 15.255H5.25V17.13L4.625 17.755H0.875L0.25 17.13V14.2463L0.4325 13.805L6.65 7.58752C6.47355 7.01918 6.38915 6.42627 6.4 5.83127C6.41139 4.99881 6.60629 4.17912 6.97079 3.43062C7.3353 2.68213 7.86043 2.02326 8.50877 1.50098C9.15711 0.978707 9.91268 0.605889 10.7216 0.409104C11.5306 0.212319 12.373 0.196412 13.1887 0.362519V0.363769ZM14.8362 9.36377C15.6215 8.72791 16.1675 7.84425 16.385 6.85752L16.39 6.86377C16.5449 6.14227 16.517 5.39351 16.3089 4.68552C16.1009 3.97753 15.7192 3.33276 15.1986 2.80978C14.6779 2.28681 14.0349 1.90221 13.3279 1.69094C12.6208 1.47966 11.8722 1.44841 11.15 1.60002C10.176 1.8162 9.30228 2.35204 8.66802 3.12221C8.03376 3.89239 7.6754 4.85262 7.65 5.85002C7.6375 6.42002 7.7375 6.98502 7.94875 7.51252L7.81125 8.19127L1.5 14.505V16.505H4V14.63L4.625 14.005H6.5V12.13L7.125 11.505H8.68125L9.77625 10.235L10.4775 10.06C10.983 10.2575 11.521 10.3585 12.0638 10.3575C13.0738 10.3498 14.0513 9.99941 14.8362 9.36377ZM13.7888 5.94877C13.8873 5.81258 13.9574 5.65791 13.9948 5.49402C14.0322 5.33012 14.0361 5.16036 14.0064 4.9949C13.9767 4.82944 13.9139 4.67168 13.8218 4.53105C13.7297 4.39042 13.6101 4.26981 13.4703 4.17645C13.3305 4.08308 13.1734 4.01887 13.0082 3.98766C12.843 3.95645 12.6732 3.95888 12.509 3.99481C12.3447 4.03074 12.1895 4.09942 12.0524 4.19675C11.9153 4.29408 11.7993 4.41806 11.7112 4.56127C11.5419 4.83675 11.4859 5.16715 11.555 5.48307C11.6241 5.79898 11.8129 6.07581 12.0819 6.25542C12.3508 6.43502 12.6788 6.50342 12.9971 6.44623C13.3154 6.38905 13.5992 6.21075 13.7888 5.94877Z" fill="black" fill-opacity="0.4"/>
</svg>
